{
  "0": "traffic light",
  "1": "rhinoceros",
  "2": "bed",
  "3": "school bus",
  "4": "van",
  "5": "octopus",
  "6": "firetruck",
  "7": "laptop",
  "8": "tractor",
  "9": "matches",
  "10": "windmill",
  "11": "square",
  "12": "pineapple",
  "13": "candle",
  "14": "mosquito",
  "15": "pear",
  "16": "boomerang",
  "17": "lollipop",
  "18": "yoga",
  "19": "waterslide",
  "20": "swan",
  "21": "triangle",
  "22": "diving board",
  "23": "crayon",
  "24": "hockey puck",
  "25": "moustache",
  "26": "calendar",
  "27": "cow",
  "28": "fire hydrant",
  "29": "hot air balloon",
  "30": "helmet",
  "31": "parrot",
  "32": "hot tub",
  "33": "baseball",
  "34": "saw",
  "35": "mouth",
  "36": "passport",
  "37": "campfire",
  "38": "car",
  "39": "bulldozer",
  "40": "pencil",
  "41": "wine glass",
  "42": "marker",
  "43": "axe",
  "44": "mug",
  "45": "see saw",
  "46": "foot",
  "47": "door",
  "48": "beach",
  "49": "cruise ship",
  "50": "drums",
  "51": "necklace",
  "52": "spoon",
  "53": "motorbike",
  "54": "megaphone",
  "55": "penguin",
  "56": "washing machine",
  "57": "giraffe",
  "58": "monkey",
  "59": "shoe",
  "60": "microphone",
  "61": "skyscraper",
  "62": "blackberry",
  "63": "sword",
  "64": "nail",
  "65": "birthday cake",
  "66": "carrot",
  "67": "lobster",
  "68": "hourglass",
  "69": "microwave",
  "70": "cannon",
  "71": "clarinet",
  "72": "basketball",
  "73": "pliers",
  "74": "bee",
  "75": "flashlight",
  "76": "leaf",
  "77": "belt",
  "78": "grass",
  "79": "river",
  "80": "peas",
  "81": "elbow",
  "82": "tiger",
  "83": "roller coaster",
  "84": "piano",
  "85": "trumpet",
  "86": "snowflake",
  "87": "bandage",
  "88": "bowtie",
  "89": "harp",
  "90": "onion",
  "91": "stairs",
  "92": "bus",
  "93": "oven",
  "94": "stop sign",
  "95": "chair",
  "96": "guitar",
  "97": "headphones",
  "98": "hockey stick",
  "99": "sheep",
  "100": "leg",
  "101": "popsicle",
  "102": "suitcase",
  "103": "snorkel",
  "104": "angel",
  "105": "scissors",
  "106": "line",
  "107": "shorts",
  "108": "toaster",
  "109": "lantern",
  "110": "rabbit",
  "111": "rain",
  "112": "camel",
  "113": "mouse",
  "114": "snail",
  "115": "cell phone",
  "116": "couch",
  "117": "butterfly",
  "118": "bear",
  "119": "light bulb",
  "120": "flower",
  "121": "paint can",
  "122": "hedgehog",
  "123": "teddy-bear",
  "124": "stitches",
  "125": "bathtub",
  "126": "blueberry",
  "127": "police car",
  "128": "crab",
  "129": "jail",
  "130": "ear",
  "131": "violin",
  "132": "grapes",
  "133": "ocean",
  "134": "telephone",
  "135": "bucket",
  "136": "anvil",
  "137": "animal migration",
  "138": "hamburger",
  "139": "dog",
  "140": "bush",
  "141": "whale",
  "142": "dresser",
  "143": "bicycle",
  "144": "church",
  "145": "table",
  "146": "hand",
  "147": "bread",
  "148": "toothpaste",
  "149": "raccoon",
  "150": "sandwich",
  "151": "barn",
  "152": "eyeglasses",
  "153": "cactus",
  "154": "smiley face",
  "155": "screwdriver",
  "156": "sun",
  "157": "envelope",
  "158": "map",
  "159": "radio",
  "160": "lighthouse",
  "161": "frog",
  "162": "peanut",
  "163": "sleeping bag",
  "164": "feather",
  "165": "The Great Wall of China",
  "166": "pillow",
  "167": "stethoscope",
  "168": "baseball bat",
  "169": "vase",
  "170": "sailboat",
  "171": "pond",
  "172": "crocodile",
  "173": "cake",
  "174": "kangaroo",
  "175": "pool",
  "176": "hurricane",
  "177": "hammer",
  "178": "tennis racquet",
  "179": "calculator",
  "180": "knee",
  "181": "The Eiffel Tower",
  "182": "cloud",
  "183": "lion",
  "184": "strawberry",
  "185": "fireplace",
  "186": "sink",
  "187": "hexagon",
  "188": "pizza",
  "189": "lipstick",
  "190": "flamingo",
  "191": "spider",
  "192": "star",
  "193": "streetlight",
  "194": "frying pan",
  "195": "cup",
  "196": "television",
  "197": "palm tree",
  "198": "eye",
  "199": "rake",
  "200": "pants",
  "201": "tooth",
  "202": "string bean",
  "203": "bracelet",
  "204": "crown",
  "205": "flip flops",
  "206": "teapot",
  "207": "compass",
  "208": "power outlet",
  "209": "beard",
  "210": "rainbow",
  "211": "toothbrush",
  "212": "canoe",
  "213": "alarm clock",
  "214": "tornado",
  "215": "circle",
  "216": "pig",
  "217": "horse",
  "218": "computer",
  "219": "squiggle",
  "220": "fan",
  "221": "broccoli",
  "222": "hat",
  "223": "wine bottle",
  "224": "umbrella",
  "225": "The Mona Lisa",
  "226": "backpack",
  "227": "chandelier",
  "228": "cooler",
  "229": "basket",
  "230": "paper clip",
  "231": "trombone",
  "232": "house",
  "233": "cat",
  "234": "dolphin",
  "235": "moon",
  "236": "shark",
  "237": "swing set",
  "238": "speedboat",
  "239": "skull",
  "240": "cello",
  "241": "toe",
  "242": "underwear",
  "243": "golf club",
  "244": "paintbrush",
  "245": "tree",
  "246": "panda",
  "247": "camouflage",
  "248": "pickup truck",
  "249": "ladder",
  "250": "arm",
  "251": "clock",
  "252": "fence",
  "253": "sea turtle",
  "254": "jacket",
  "255": "diamond",
  "256": "octagon",
  "257": "remote control",
  "258": "stove",
  "259": "train",
  "260": "tent",
  "261": "parachute",
  "262": "ice cream",
  "263": "truck",
  "264": "castle",
  "265": "finger",
  "266": "potato",
  "267": "binoculars",
  "268": "helicopter",
  "269": "snowman",
  "270": "ant",
  "271": "toilet",
  "272": "flying saucer",
  "273": "steak",
  "274": "owl",
  "275": "t-shirt",
  "276": "house plant",
  "277": "soccer ball",
  "278": "apple",
  "279": "book",
  "280": "face",
  "281": "sock",
  "282": "drill",
  "283": "donut",
  "284": "saxophone",
  "285": "dishwasher",
  "286": "camera",
  "287": "hospital",
  "288": "broom",
  "289": "lightning",
  "290": "watermelon",
  "291": "spreadsheet",
  "292": "bridge",
  "293": "coffee cup",
  "294": "ambulance",
  "295": "key",
  "296": "picture frame",
  "297": "nose",
  "298": "purse",
  "299": "stereo",
  "300": "keyboard",
  "301": "elephant",
  "302": "zigzag",
  "303": "bird",
  "304": "sweater",
  "305": "mailbox",
  "306": "banana",
  "307": "bench",
  "308": "snake",
  "309": "scorpion",
  "310": "submarine",
  "311": "ceiling fan",
  "312": "duck",
  "313": "skateboard",
  "314": "eraser",
  "315": "fork",
  "316": "hot dog",
  "317": "squirrel",
  "318": "rollerskates",
  "319": "zebra",
  "320": "mountain",
  "321": "wristwatch",
  "322": "dumbbell",
  "323": "mermaid",
  "324": "cookie",
  "325": "garden",
  "326": "asparagus",
  "327": "bottlecap",
  "328": "airplane",
  "329": "mushroom",
  "330": "bat",
  "331": "wheel",
  "332": "dragon",
  "333": "goatee",
  "334": "floor lamp",
  "335": "garden hose",
  "336": "postcard",
  "337": "shovel",
  "338": "brain",
  "339": "fish"
}
